{
    "count": 18980,
    "next": "https://api.spaceflightnewsapi.net/v4/articles/?format=json&limit=3&offset=3",
    "previous": null,
    "results": [
        {
            "id": 21996,
            "title": "Ingenuity lessons being incorporated into Mars Sample Return",
            "url": "https://spacenews.com/ingenuity-lessons-being-incorporated-into-mars-sample-return/",
            "image_url": "https://i0.wp.com/spacenews.com/wp-content/uploads/2024/01/ingenuity-nasm.jpg",
            "news_site": "SpaceNews",
            "summary": "As a Mars helicopter continues to operate far past expectations, lessons from that vehicle are being incorporated into NASA’s evolving Mars Sample Return plans.",
            "published_at": "2024-01-04T00:14:11Z",
            "updated_at": "2024-01-04T00:19:15.955000Z",
            "featured": false,
            "launches": [],
            "events": []
        },
        {
            "id": 21995,
            "title": "ULA Ready for Inaugural Vulcan Flight",
            "url": "https://www.nasaspaceflight.com/2024/01/vulcan-flight-one-preps/",
            "image_url": "https://www.nasaspaceflight.com/wp-content/uploads/2023/12/53411134640_02554bc85b_o-1170x878.jpg",
            "news_site": "NASASpaceflight",
            "summary": "United Launch Alliance (ULA) is preparing for the inaugural flight of its new Vulcan rocket from Space Launch Complex (SLC) 41 at the Cape Canaveral Space Force Station in Florida. Liftoff is currently scheduled for Jan. 8, 2023, at 2:18 AM EST (07:18 UTC).",
            "published_at": "2024-01-03T17:39:37Z",
            "updated_at": "2024-01-03T17:53:37.512000Z",
            "featured": false,
            "launches": [
                {
                    "launch_id": "b973e965-3901-4bda-9236-b0afee33f388",
                    "provider": "Launch Library 2"
                }
            ],
            "events": []
        },
        {
            "id": 21994,
            "title": "More Than Just LEO: A Framework for SPD-8 and Space Critical Infrastructure",
            "url": "https://spacenews.com/more-than-just-leo-a-framework-for-spd-8-and-space-critical-infrastructure/",
            "image_url": "https://i0.wp.com/spacenews.com/wp-content/uploads/2024/01/iss-march2023.jpg",
            "news_site": "SpaceNews",
            "summary": "The current debate over whether to weight space critical infrastructure on its impact on terrestrial activity overlooks most deep space activity.",
            "published_at": "2024-01-03T15:30:00Z",
            "updated_at": "2024-01-03T15:39:15.888000Z",
            "featured": false,
            "launches": [],
            "events": []
        }
    ]
}